8.10 Additive MLR with more than two groups: Headache example | Intermediate Statistics with R
…
(ref:fig8-21) Scatterplot of post-treatment decibel tolerance (du2) vs
pre-treatment tolerance (du1) by treatment level (4 groups).

library(heplots)
data(Headache)
Headache <- as_tibble(Headache)
Headache

## # A tibble: 98 x 6
##    type    treatment    u1   du1    u2   du2
##    <fct>   <fct>     <dbl> <dbl> <dbl> <dbl>
##  1 Migrane T3         2.34  5.3   5.8   8.52
##  2 Migrane T1         2.73  6.85  4.68  6.68
##  3 Tension T1         0.37  0.53  0.55  0.84
##  4 Migrane T3         7.5   9.12  5.7   7.88
##  5 Migrane T3         4.63  7.21  5.63  6.75
##  6 Migrane T3         3.6   7.3   4.83  7.32
##  7 Migrane T2         2.45  3.75  2.5   3.18
##  8 Migrane T1         2.31  3.25  2     3.3 
##  9 Migrane T1         1.38  2.33  2.23  3.98
## 10 Tension T3         0.85  1.42  1.37  1.89
## # ... with 88 more rows
…
