Chapter 8 Multiple linear regression | Intermediate Statistics with R
…
elevs <- seq(from = 5000, to = 8000, length.out = 30)
newdata1 <- tibble(Elevation = elevs, Min.Temp = rep(27.826,30),
                   Max.Temp = rep(36.3913,30))
newdata1

## # A tibble: 30 x 3
##    Elevation Min.Temp Max.Temp
##        <dbl>    <dbl>    <dbl>
##  1     5000      27.8     36.4
##  2     5103.     27.8     36.4
##  3     5207.     27.8     36.4
##  4     5310.     27.8     36.4
##  5     5414.     27.8     36.4
##  6     5517.     27.8     36.4
##  7     5621.     27.8     36.4
##  8     5724.     27.8     36.4
##  9     5828.     27.8     36.4
## 10     5931.     27.8     36.4
## # ... with 20 more rows
…
library(heplots)
data(Headache)
Headache <- as_tibble(Headache)
Headache

## # A tibble: 98 x 6
##    type    treatment    u1   du1    u2   du2
##    <fct>   <fct>     <dbl> <dbl> <dbl> <dbl>
##  1 Migrane T3         2.34  5.3   5.8   8.52
##  2 Migrane T1         2.73  6.85  4.68  6.68
##  3 Tension T1         0.37  0.53  0.55  0.84
##  4 Migrane T3         7.5   9.12  5.7   7.88
##  5 Migrane T3         4.63  7.21  5.63  6.75
##  6 Migrane T3         3.6   7.3   4.83  7.32
##  7 Migrane T2         2.45  3.75  2.5   3.18
##  8 Migrane T1         2.31  3.25  2     3.3 
##  9 Migrane T1         1.38  2.33  2.23  3.98
## 10 Tension T3         0.85  1.42  1.37  1.89
## # ... with 88 more rows
…
